# Blender 4.1.0 MTL File: 'trash.blend'
# www.blender.org

newmtl Trashcan
Ka 1.000000 1.000000 1.000000
Ks 0.500000 0.500000 0.500000
Ke 0.000000 0.000000 0.000000
Ni 1.450000
d 1.000000
illum 2
map_Kd D:/кут/Текстури/бетон/бетон темносірий/Concrete032_4K_Color.png
map_Ns D:/кут/Текстури/бетон/бетон темносірий/Concrete032_4K_Roughness.png
